case-study • reclanc
…
cell_preds <- predict(
  final_fit_tuned,
  cell_rna,
  assay = 2,
  type = "numeric",
  method = "spearman"
)
#> 118/140 (84%) genes in centroids found in `new_data`

out <- cbind(colData(cell_rna), cell_preds) |>
  as_tibble()

out
#> # A tibble: 30 × 12
#>    cell     bsl    lum call  clade            .pred_MS1a .pred_MS1b .pred_MS2a.1
#>    <chr>  <dbl>  <dbl> <chr> <fct>                 <dbl>      <dbl>        <dbl>
#>  1 1A6     99.0   1.02 BSL   Epithelial Other     0.0600      0.224        0.149
#>  2 253JP   76.6  23.4  BSL   Unknown              0.0574      0.240        0.219
#>  3 5637    98.5   1.46 BSL   Epithelial Other     0.0958      0.243        0.160
#>  4 BV      49.9  50.1  LUM   Unknown              0.0758      0.262        0.238
#>  5 HT1197  56.0  44.0  BSL   Epithelial Other     0.119       0.288        0.224
#>  6 HT1376  10.9  89.1  LUM   Epithelial Other     0.100       0.277        0.238
#>  7 J82     98.1   1.91 BSL   Mesenchymal          0.127       0.292        0.219
#>  8 RT112    0   100    LUM   Luminal Papilla…     0.173       0.380        0.294
#>  9 RT4      0   100    LUM   Luminal Papilla…     0.134       0.317        0.257
#> 10 RT4V6    0   100    LUM   Luminal Papilla…     0.143       0.207        0.165
#> # ℹ 20 more rows
#> # ℹ 4 more variables: .pred_MS2a.2 <dbl>, .pred_MS2b.1 <dbl>,
#> #   .pred_MS2b2.1 <dbl>, .pred_MS2b2.2 <dbl>
…
